----------------------------------
Parallax Propeller Project Archive
----------------------------------

 Project : simple_i8086.spin2
Archived : Thursday, June 9, 2022 at 09:03
    Tool : Spin Tools version 0.18

simple_i8086.spin2